{
	"info": {
		"_postman_id": "48c57008-bdc1-4c77-8555-0aa43c9d4955",
		"name": "Applaudo-Collection",
		"schema": "https://schema.getpostman.com/json/collection/v2.1.0/collection.json"
	},
	"item": [
		{
			"name": "getItemByID",
			"request": {
				"method": "GET",
				"header": [],
				"url": {
					"raw": "http://localhost:8080/applaudo-item-api/api/item/1",
					"protocol": "http",
					"host": [
						"localhost"
					],
					"port": "8080",
					"path": [
						"applaudo-item-api",
						"api",
						"item",
						"1"
					]
				}
			},
			"response": []
		},
		{
			"name": "getItemList",
			"request": {
				"method": "GET",
				"header": [],
				"url": {
					"raw": "http://localhost:8080/applaudo-item-api/api/item?itemStatus=AVAILABLE&itemName=item_x",
					"protocol": "http",
					"host": [
						"localhost"
					],
					"port": "8080",
					"path": [
						"applaudo-item-api",
						"api",
						"item"
					],
					"query": [
						{
							"key": "itemStatus",
							"value": "AVAILABLE"
						},
						{
							"key": "itemName",
							"value": "item_x"
						}
					]
				}
			},
			"response": []
		},
		{
			"name": "createItem",
			"request": {
				"method": "POST",
				"header": [
					{
						"key": "Content-Type",
						"value": "application/json",
						"type": "text"
					}
				],
				"body": {
					"mode": "raw",
					"raw": "{\r\n  \"itemId\":1,\r\n  \"itemName\":\"item_x\", \r\n  \"itemBuyingPrice\":50.0, \r\n  \"itemSellingPrice\":55.0, \r\n  \"itemStatus\":\"AVAILABLE\" }"
				},
				"url": {
					"raw": "http://localhost:8080/applaudo-item-api/api/item",
					"protocol": "http",
					"host": [
						"localhost"
					],
					"port": "8080",
					"path": [
						"applaudo-item-api",
						"api",
						"item"
					]
				}
			},
			"response": []
		}
	]
}